<svg width="40" height="40" viewBox="0 0 40 40" fill="none" xmlns="http://www.w3.org/2000/svg">
<g opacity="0.7">
<path d="M20.2546 14.0736C20.2259 14.0337 20.188 14.0011 20.1442 13.9787C20.1004 13.9563 20.0519 13.9446 20.0027 13.9446C19.9535 13.9446 19.905 13.9563 19.8612 13.9787C19.8173 14.0011 19.7795 14.0337 19.7507 14.0736L12.7976 23.6829C12.6491 23.8899 12.7976 24.179 13.0515 24.179H14.8835C15.282 24.179 15.6609 23.9876 15.8952 23.6634L20.0007 17.9837L24.1101 23.6634C24.3445 23.9876 24.7195 24.179 25.1218 24.179H26.9539C27.2078 24.179 27.3562 23.8899 27.2078 23.6829L20.2546 14.0736Z" fill="white"/>
<path d="M20 2.5C10.3359 2.5 2.5 10.3359 2.5 20C2.5 29.6641 10.3359 37.5 20 37.5C29.6641 37.5 37.5 29.6641 37.5 20C37.5 10.3359 29.6641 2.5 20 2.5ZM20 34.5312C11.9766 34.5312 5.46875 28.0234 5.46875 20C5.46875 11.9766 11.9766 5.46875 20 5.46875C28.0234 5.46875 34.5312 11.9766 34.5312 20C34.5312 28.0234 28.0234 34.5312 20 34.5312Z" fill="white"/>
</g>
</svg>
